[
  {
    "id": 1,
    "name": "Anil Patil",
    "email": "anilpatil@gmail.com",
    "phone": "9822364455",
    "age": 45,
    "gender": "male",
    "photo": "../../assets/male.png",
    "address": "224, ayodhya nagar,pune"
  },
  {
    "id": 2,
    "name": "Anil Patil",
    "email": "anilpatil@gmail.com",
    "phone": "9822364455",
    "age": 45,
    "gender": "male",
    "photo": "../../assets/male.png",
    "address": "224, ayodhya nagar,pune"
  },
  {
    "id":3,
    "name": "Anil Patil",
    "email": "anilpatil@gmail.com",
    "phone": "9822364455",
    "age": 45,
    "gender": "male",
    "photo": "../../assets/male.png",
    "address": "224, ayodhya nagar,pune"
  },
  {
    "id":4,
    "name": "Anil Patil",
    "email": "anilpatil@gmail.com",
    "phone": "9822364455",
    "age": 45,
    "gender": "male",
    "photo": "../../assets/male.png",
    "address": "224, ayodhya nagar,pune"
  },
  {
    "id":5,
    "name": "Anil Patil",
    "email": "anilpatil@gmail.com",
    "phone": "9822364455",
    "age": 45,
    "gender": "male",
    "photo": "../../assets/male.png",
    "address": "224, ayodhya nagar,pune"
  }
]
